{
  "label": "Class 11",
  "position": 11,
  "link": {
    "type": "generated-index",
    "title": "Class 11 Study Materials",
    "description": "Get access to quality study materials for Class 11 absolutely free, learn without any disturbance only on TalentBrick.",
    "slug": "/class-11"
  }
}
